2020-12-03_ConcreteXGB.utf8
…
set.seed(345)
xgboost_grid <- grid_max_entropy(min_n(), tree_depth(), learn_rate(), size = 30)

# xgboost_grid %>%
#   ggplot(aes(penalty, hidden_units)) +
#   geom_point(color = "steelblue", size = 3) +
#   scale_x_log10() +
#   theme_light() +
#   labs(title = "Max Entropy Grid", x = "Penalty (log scale)", y = "Hidden Units")

xgboost_grid

## # A tibble: 30 x 3
##    min_n tree_depth learn_rate
##    <int>      <int>      <dbl>
##  1     6          1   8.78e- 7
##  2    38          3   9.89e- 8
##  3    30          1   1.18e- 2
##  4    23          5   3.77e- 7
##  5    37         15   1.07e-10
##  6    16          6   3.19e- 4
##  7    12          7   1.34e-10
##  8    40         10   9.93e- 8
##  9     2         15   2.08e- 8
## 10    36         10   2.64e- 2
## # ... with 20 more rows
…
