2021-03-30_tt_MakeupShades.utf8
…
The model coefficients were then gathered into a single tibble for subsequent calculations. Terms with 2 or fewer characters were dropped from the tibble because they didn’t make for interesting word pairings.

final_effect <- tidy(hue_results, penalty = 0) %>%
  rename(hue = estimate) %>%
  select(term, hue) %>%
  left_join(tidy(sat_results) %>% select(term, sat = estimate), by = "term") %>%
  left_join(tidy(lightness_results) %>% select(term, lightness = estimate), by = "term") %>%
  mutate(term = str_replace(term, "tf_name_", "")) %>%
  filter(str_length(term) > 2)

final_effect

## # A tibble: 625 x 4
##    term           hue     sat lightness
##    <chr>        <dbl>   <dbl>     <dbl>
##  1 (Intercept) 24.1    0.522     0.658 
##  2 abundant    -4.01  -0.0783   -0.0789
##  3 accra        0.893 -0.0116   -0.233 
##  4 aglow        4.60  -0.0107    0.243 
##  5 airflash     0      0         0.0374
##  6 alabaster    0.457  0.125     0.160 
##  7 alaska       5.80  -0.0503    0.139 
##  8 alex         0.460 -0.150    -0.0423
##  9 alexandria   4.72   0.0189    0.0394
## 10 allie        1.65  -0.122     0.0198
## # ... with 615 more rows
…
